{
  "changelogDate": "20220906132309",
  "dto": "no",
  "fields": [
    {
      "fieldName": "cik",
      "fieldType": "String",
      "fieldValidateRules": ["required"]
    },
    {
      "fieldName": "ccc",
      "fieldType": "String",
      "fieldValidateRules": ["required"]
    },
    {
      "fieldName": "paymentAmount",
      "fieldType": "String",
      "fieldValidateRules": ["required"]
    },
    {
      "fieldName": "name",
      "fieldType": "String",
      "fieldValidateRules": ["required"]
    },
    {
      "fieldName": "email",
      "fieldType": "String",
      "fieldValidateRules": ["required"]
    },
    {
      "fieldName": "phone",
      "fieldType": "String",
      "fieldValidateRules": ["required"]
    },
    {
      "fieldName": "approvalStatus",
      "fieldType": "String",
      "fieldValidateRules": ["required"]
    }
  ],
  "jpaMetamodelFiltering": false,
  "name": "Payment",
  "pagination": "no",
  "readOnly": false,
  "relationships": [],
  "service": "serviceImpl"
}
